{
  "images" : [
    {
      "idiom" : "iphone",
      "scale" : "1x"
    },
    {
      "idiom" : "iphone",
      "filename" : "interactiveprint_2X copy.png",
      "scale" : "2x"
    },
    {
      "idiom" : "iphone",
      "filename" : "interactiveprint_2X-1.png",
      "scale" : "3x"
    },
    {
      "idiom" : "ipad",
      "filename" : "infoipad@1x.png",
      "scale" : "1x"
    },
    {
      "idiom" : "ipad",
      "filename" : "interactiveprint_2X.png",
      "scale" : "2x"
    }
  ],
  "info" : {
    "version" : 1,
    "author" : "xcode"
  }
}